module goTest

go 1.17

require (
	github.com/tidwall/gjson v1.14.0
	gorm.io/driver/mysql v1.2.3
	gorm.io/gorm v1.22.5
)

require (
	cloud.google.com/go v0.102.1 // indirect
	cloud.google.com/go/compute v1.7.0 // indirect
	cloud.google.com/go/translate v1.2.0 // indirect
	github.com/go-sql-driver/mysql v1.6.0 // indirect
	github.com/golang/groupcache v0.0.0-20210331224755-41bb18bfe9da // indirect
	github.com/golang/protobuf v1.5.2 // indirect
	github.com/google/go-cmp v0.5.8 // indirect
	github.com/googleapis/enterprise-certificate-proxy v0.1.0 // indirect
	github.com/googleapis/gax-go/v2 v2.4.0 // indirect
	github.com/jinzhu/inflection v1.0.0 // indirect
	github.com/jinzhu/now v1.1.4 // indirect
	github.com/tidwall/match v1.1.1 // indirect
	github.com/tidwall/pretty v1.2.0 // indirect
	go.opencensus.io v0.23.0 // indirect
	golang.org/x/net v0.0.0-20220617184016-355a448f1bc9 // indirect
	golang.org/x/oauth2 v0.0.0-20220608161450-d0670ef3b1eb // indirect
	golang.org/x/sys v0.0.0-20220615213510-4f61da869c0c // indirect
	golang.org/x/text v0.3.7 // indirect
	google.golang.org/api v0.84.0 // indirect
	google.golang.org/appengine v1.6.7 // indirect
	google.golang.org/genproto v0.0.0-20220617124728-180714bec0ad // indirect
	google.golang.org/grpc v1.47.0 // indirect
	google.golang.org/protobuf v1.28.0 // indirect
)
